<?xml version="1.0" encoding="UTF-8" standalone="no"?>
<svg
   xmlns:dc="http://purl.org/dc/elements/1.1/"
   xmlns:cc="http://creativecommons.org/ns#"
   xmlns:rdf="http://www.w3.org/1999/02/22-rdf-syntax-ns#"
   xmlns:svg="http://www.w3.org/2000/svg"
   xmlns="http://www.w3.org/2000/svg"
   xmlns:sodipodi="http://sodipodi.sourceforge.net/DTD/sodipodi-0.dtd"
   xmlns:inkscape="http://www.inkscape.org/namespaces/inkscape"
   viewBox="0 0 32 40"
   x="0px"
   y="0px"
   version="1.1"
   id="svg18"
   sodipodi:docname="RSS.svg"
   inkscape:version="0.92.3 (2405546, 2018-03-11)">
  <metadata
     id="metadata24">
    <rdf:RDF>
      <cc:Work
         rdf:about="">
        <dc:format>image/svg+xml</dc:format>
        <dc:type
           rdf:resource="http://purl.org/dc/dcmitype/StillImage" />
      </cc:Work>
    </rdf:RDF>
  </metadata>
  <defs
     id="defs22" />
  <sodipodi:namedview
     pagecolor="#ffffff"
     bordercolor="#666666"
     borderopacity="1"
     objecttolerance="10"
     gridtolerance="10"
     guidetolerance="10"
     inkscape:pageopacity="0"
     inkscape:pageshadow="2"
     inkscape:window-width="1313"
     inkscape:window-height="916"
     id="namedview20"
     showgrid="false"
     inkscape:zoom="5.9"
     inkscape:cx="16"
     inkscape:cy="20"
     inkscape:window-x="0"
     inkscape:window-y="0"
     inkscape:window-maximized="0"
     inkscape:current-layer="svg18" />
  <title
     id="title2">Icon</title>
  <g
     data-name="Layer 2"
     id="g12">
    <path
       d="M12,26.27H6.67a.93.93,0,0,1-.93-.93V20a.93.93,0,0,1,.93-.93,6.28,6.28,0,0,1,6.27,6.27A.93.93,0,0,1,12,26.27ZM7.6,24.4H11A4.41,4.41,0,0,0,7.6,21Z"
       id="path4" />
    <path
       d="M18.67,26.27H15.34a.93.93,0,0,1-.93-.93A7.74,7.74,0,0,0,6.67,17.6a.94.94,0,0,1-.94-.93V13.33a.93.93,0,0,1,.93-.93A13,13,0,0,1,19.61,25.33.93.93,0,0,1,18.67,26.27ZM16.23,24.4H17.7A11.09,11.09,0,0,0,7.6,14.3v1.47A9.62,9.62,0,0,1,16.23,24.4Z"
       id="path6" />
    <path
       d="M25.33,26.27H22a.93.93,0,0,1-.93-.93,14.42,14.42,0,0,0-14.4-14.4A.94.94,0,0,1,5.73,10V6.67a.93.93,0,0,1,.93-.93,19.67,19.67,0,0,1,19.6,19.35h0v.24A.93.93,0,0,1,25.33,26.27ZM22.91,24.4h1.46A17.8,17.8,0,0,0,7.6,7.62V9.09A16.29,16.29,0,0,1,22.91,24.4Z"
       id="path8" />
    <path
       d="M27.2,30H4.8A2.8,2.8,0,0,1,2,27.2V4.8A2.8,2.8,0,0,1,4.8,2H27.2A2.8,2.8,0,0,1,30,4.8V27.2A2.8,2.8,0,0,1,27.2,30ZM4.8,3.87a.93.93,0,0,0-.93.93V27.2a.93.93,0,0,0,.93.93H27.2a.93.93,0,0,0,.93-.93V4.8a.93.93,0,0,0-.93-.93Z"
       id="path10" />
  </g>
</svg>
